{
	"info": {
		"_postman_id": "92559237-12b9-4253-b638-4359a1d5a9e3",
		"name": "DentistV2",
		"schema": "https://schema.getpostman.com/json/collection/v2.1.0/collection.json",
		"_exporter_id": "20277373"
	},
	"item": [
		{
			"name": "Users",
			"item": [
				{
					"name": "+++Users Login",
					"request": {
						"method": "POST",
						"header": [],
						"body": {
							"mode": "raw",
							"raw": "{\r\n    \"device\": {{device}},\r\n    \"login\": \"dedooj1@gmail.com\",\r\n    \"password\": \"81dc9bdb52d04dc20036dbd8313ed055\"\r\n}",
							"options": {
								"raw": {
									"language": "json"
								}
							}
						},
						"url": {
							"raw": "{{host_url}}/api/v1/users/login",
							"host": [
								"{{host_url}}"
							],
							"path": [
								"api",
								"v1",
								"users",
								"login"
							]
						}
					},
					"response": []
				},
				{
					"name": "+++Users List",
					"request": {
						"auth": {
							"type": "bearer",
							"bearer": [
								{
									"key": "token",
									"value": "{{accessToken}}",
									"type": "string"
								}
							]
						},
						"method": "POST",
						"header": [],
						"body": {
							"mode": "raw",
							"raw": "\r\n{\r\n  \"device\": {{device}},\r\n  \"paginationData\": {\r\n    \"page\": 0,\r\n    \"perPage\": 20,\r\n    \"sort\": {\r\n        \"fullName\":\"ASC\",\r\n        \"createDate\":\"ASC\"\r\n    },\r\n    \"filter\": {\r\n        \"status\": 1,\r\n        \"fromDate\": \"2022-10-28T15:11:43.219Z\",\r\n        \"toDate\": \"2022-10-30T15:11:43.219Z\"\r\n    },\r\n    \"q\": \"\"\r\n  },\r\n    \"tokenUser\": {\r\n    \"idUser\": 54,\r\n    \"idKey\": \"47bef1b08b89fbb256b57f44fcab366e\",\r\n    \"fullName\": \"dedoo hossary\",\r\n    \"accessToken\": \"122ac1939364af0aff1e85602ebb50bf\",\r\n    \"idRole\": 1,\r\n    \"isOnline\": 1\r\n  },\r\n  \"sidUser\": 54,\r\n  \"sidKeyUser\": \"47bef1b08b89fbb256b57f44fcab366e\",\r\n  \"sidRole\": 1,\r\n  \"sisOnline\": 1,\r\n  \"accessToken\": \"122ac1939364af0aff1e85602ebb50bf\"\r\n}",
							"options": {
								"raw": {
									"language": "json"
								}
							}
						},
						"url": {
							"raw": "{{host_url}}/api/v1/users/list",
							"host": [
								"{{host_url}}"
							],
							"path": [
								"api",
								"v1",
								"users",
								"list"
							]
						}
					},
					"response": []
				},
				{
					"name": "+++Users Logout",
					"request": {
						"auth": {
							"type": "bearer",
							"bearer": [
								{
									"key": "token",
									"value": "{{accessToken}}",
									"type": "string"
								}
							]
						},
						"method": "POST",
						"header": [],
						"body": {
							"mode": "raw",
							"raw": "{\r\n    \"device\": {{device}}\r\n}",
							"options": {
								"raw": {
									"language": "json"
								}
							}
						},
						"url": {
							"raw": "{{host_url}}/api/v1/users/logout",
							"host": [
								"{{host_url}}"
							],
							"path": [
								"api",
								"v1",
								"users",
								"logout"
							]
						}
					},
					"response": []
				},
				{
					"name": "+++Users change status InActive",
					"request": {
						"auth": {
							"type": "bearer",
							"bearer": [
								{
									"key": "token",
									"value": "{{accessToken}}",
									"type": "string"
								}
							]
						},
						"method": "POST",
						"header": [],
						"body": {
							"mode": "raw",
							"raw": "{\r\n    \"device\": {{device}}\r\n}",
							"options": {
								"raw": {
									"language": "json"
								}
							}
						},
						"url": {
							"raw": "{{host_url}}/api/v1/users/change_status/inactive/{{idKeyUser}}",
							"host": [
								"{{host_url}}"
							],
							"path": [
								"api",
								"v1",
								"users",
								"change_status",
								"inactive",
								"{{idKeyUser}}"
							]
						}
					},
					"response": []
				},
				{
					"name": "+++Users change status Active",
					"request": {
						"auth": {
							"type": "bearer",
							"bearer": [
								{
									"key": "token",
									"value": "{{accessToken}}",
									"type": "string"
								}
							]
						},
						"method": "POST",
						"header": [],
						"body": {
							"mode": "raw",
							"raw": "{\r\n    \"device\": {{device}}\r\n}",
							"options": {
								"raw": {
									"language": "json"
								}
							}
						},
						"url": {
							"raw": "{{host_url}}/api/v1/users/change_status/active/{{idKeyUser}}",
							"host": [
								"{{host_url}}"
							],
							"path": [
								"api",
								"v1",
								"users",
								"change_status",
								"active",
								"{{idKeyUser}}"
							]
						}
					},
					"response": []
				},
				{
					"name": "+++User Get One",
					"request": {
						"auth": {
							"type": "bearer",
							"bearer": [
								{
									"key": "token",
									"value": "{{accessToken}}",
									"type": "string"
								}
							]
						},
						"method": "POST",
						"header": [],
						"body": {
							"mode": "raw",
							"raw": "{\r\n    \"device\": {{device}}\r\n     \r\n}",
							"options": {
								"raw": {
									"language": "json"
								}
							}
						},
						"url": {
							"raw": "{{host_url}}/api/v1/users/get_one/{{idKeyUser}}",
							"host": [
								"{{host_url}}"
							],
							"path": [
								"api",
								"v1",
								"users",
								"get_one",
								"{{idKeyUser}}"
							]
						}
					},
					"response": []
				},
				{
					"name": "+++Users Change Account Settings",
					"request": {
						"auth": {
							"type": "bearer",
							"bearer": [
								{
									"key": "token",
									"value": "{{accessToken}}",
									"type": "string"
								}
							]
						},
						"method": "POST",
						"header": [],
						"body": {
							"mode": "raw",
							"raw": "{\r\n    \"device\": {{device}},\r\n     \"saveData\": {\r\n        \"fullName\": \"Eyad Hossary\",\r\n        \"phoneCode\": \"+963\",\r\n        \"phoneNumber\": \"930492567\",\r\n        \"lang\": \"en\",\r\n        \"login\": \"dedooj1@gmail.com\",\r\n        \"direction\": \"ltr\",\r\n        \"idBranch\": 1\r\n    }\r\n}",
							"options": {
								"raw": {
									"language": "json"
								}
							}
						},
						"url": {
							"raw": "{{host_url}}/api/v1/users/account_settings",
							"host": [
								"{{host_url}}"
							],
							"path": [
								"api",
								"v1",
								"users",
								"account_settings"
							]
						}
					},
					"response": []
				},
				{
					"name": "+++Users Save",
					"request": {
						"auth": {
							"type": "bearer",
							"bearer": [
								{
									"key": "token",
									"value": "{{accessToken}}",
									"type": "string"
								}
							]
						},
						"method": "POST",
						"header": [],
						"body": {
							"mode": "raw",
							"raw": "{\r\n    \"device\": {{device}},\r\n     \"saveData\": {\r\n        \"fullName\": \"fady4 Hossary\",\r\n        \"email\" : \"fady9@gmail.com\",\r\n        \"phoneCode\": \"+963\",\r\n        \"phoneNumber\": \"930492567\",\r\n        \"password\": \"81dc9bdb52d04dc20036dbd8313ed055\",\r\n        \"idRole\" : 3,\r\n        \"idPolicy\": 1,\r\n        \"idBranch\": 1,\r\n        \"icon\": \"public\\\\tmp\\\\8ddddd0rgghdu81119re80gg.jpg\"\r\n    }\r\n}",
							"options": {
								"raw": {
									"language": "json"
								}
							}
						},
						"url": {
							"raw": "{{host_url}}/api/v1/users/save/",
							"host": [
								"{{host_url}}"
							],
							"path": [
								"api",
								"v1",
								"users",
								"save",
								""
							]
						}
					},
					"response": []
				},
				{
					"name": "+++Users Change Password",
					"request": {
						"auth": {
							"type": "bearer",
							"bearer": [
								{
									"key": "token",
									"value": "{{accessToken}}",
									"type": "string"
								}
							]
						},
						"method": "POST",
						"header": [],
						"body": {
							"mode": "raw",
							"raw": "{\r\n    \"device\": {{device}},\r\n     \"saveData\": {\r\n        \"currentPassword\": \"81dc9bdb52d04dc20036dbd8313ed055\",\r\n        \"newPassword\": \"cc82a23b7e37dbfaa2cee8c249fcf6fc\"\r\n    }\r\n}",
							"options": {
								"raw": {
									"language": "json"
								}
							}
						},
						"url": {
							"raw": "{{host_url}}/api/v1/users/change_password",
							"host": [
								"{{host_url}}"
							],
							"path": [
								"api",
								"v1",
								"users",
								"change_password"
							]
						}
					},
					"response": []
				},
				{
					"name": "+++Users Forgot Password",
					"request": {
						"method": "POST",
						"header": [],
						"body": {
							"mode": "raw",
							"raw": "{\r\n    \"device\":{{device}},\r\n    \"email\" : \"dedooj1@gmail.com\"\r\n}",
							"options": {
								"raw": {
									"language": "json"
								}
							}
						},
						"url": {
							"raw": "{{host_url}}/api/v1/users/forgot_password",
							"host": [
								"{{host_url}}"
							],
							"path": [
								"api",
								"v1",
								"users",
								"forgot_password"
							]
						}
					},
					"response": []
				},
				{
					"name": "+++User Register",
					"request": {
						"auth": {
							"type": "noauth"
						},
						"method": "POST",
						"header": [],
						"body": {
							"mode": "raw",
							"raw": "{\r\n    \"device\": {{device}},\r\n    \"saveData\": {\r\n        \"email\": \"dedooj1@gmail.com\",\r\n        \"name\": \"JSOURCE_JSRC\",\r\n        \"fullName\":\"Eyad hossary\",\r\n        \"idCountry\": 208,\r\n        \"phoneCode\": \"+963\",\r\n        \"phoneNumber\": 930492567,\r\n        \"idPackage\": 1,\r\n        \"password\": \"81dc9bdb52d04dc20036dbd8313ed055\"\r\n    }\r\n}",
							"options": {
								"raw": {
									"language": "json"
								}
							}
						},
						"url": {
							"raw": "{{host_url}}/api/v1/users/register",
							"host": [
								"{{host_url}}"
							],
							"path": [
								"api",
								"v1",
								"users",
								"register"
							]
						}
					},
					"response": []
				},
				{
					"name": "+++User Add Admin",
					"request": {
						"auth": {
							"type": "bearer",
							"bearer": [
								{
									"key": "token",
									"value": "{{accessToken}}",
									"type": "string"
								}
							]
						},
						"method": "POST",
						"header": [],
						"body": {
							"mode": "raw",
							"raw": "{\r\n    \"device\": {{device}},\r\n    \"saveData\": {\r\n        \"email\": \"dedooj2@gmail.com\",\r\n        \"name\": \"JSOURCE_JSRC\",\r\n        \"fullName\":\"Eyad hossary\",\r\n        \"idCountry\": 208,\r\n        \"phoneCode\": \"+963\",\r\n        \"phoneNumber\": 930492567,\r\n        \"idPackage\": 1,\r\n        \"password\": \"81dc9bdb52d04dc20036dbd8313ed055\"\r\n    }\r\n}",
							"options": {
								"raw": {
									"language": "json"
								}
							}
						},
						"url": {
							"raw": "{{host_url}}/api/v1/users/admin/create",
							"host": [
								"{{host_url}}"
							],
							"path": [
								"api",
								"v1",
								"users",
								"admin",
								"create"
							]
						}
					},
					"response": []
				},
				{
					"name": "+++User confirm",
					"request": {
						"method": "POST",
						"header": [],
						"body": {
							"mode": "raw",
							"raw": "{\r\n    \"device\":{{device}}\r\n}",
							"options": {
								"raw": {
									"language": "json"
								}
							}
						},
						"url": {
							"raw": "{{host_url}}/api/v1/users/confirm/9dd9780f496f0b6fe38d0225480fa0cc",
							"host": [
								"{{host_url}}"
							],
							"path": [
								"api",
								"v1",
								"users",
								"confirm",
								"9dd9780f496f0b6fe38d0225480fa0cc"
							]
						}
					},
					"response": []
				},
				{
					"name": "+++Users Magic Login",
					"request": {
						"method": "POST",
						"header": [],
						"body": {
							"mode": "raw",
							"raw": "{\r\n    \"device\":{{device}}\r\n}",
							"options": {
								"raw": {
									"language": "json"
								}
							}
						},
						"url": {
							"raw": "{{host_url}}/api/v1/users/magic_login/ffdece6036f1e9575e9a4fea713c10b7",
							"host": [
								"{{host_url}}"
							],
							"path": [
								"api",
								"v1",
								"users",
								"magic_login",
								"ffdece6036f1e9575e9a4fea713c10b7"
							]
						}
					},
					"response": []
				},
				{
					"name": "+++Forgot Password (New Password)",
					"request": {
						"method": "POST",
						"header": [],
						"body": {
							"mode": "raw",
							"raw": "{\r\n    \"device\":{{device}},\r\n    \"saveData\": {\r\n        \"password\":\"81dc9bdb52d04dc20036dbd8313ed055\"\r\n    }\r\n}",
							"options": {
								"raw": {
									"language": "json"
								}
							}
						},
						"url": {
							"raw": "{{host_url}}/api/v1/users/forgot_password/05c9e91cff265e76115a82727573e3a5",
							"host": [
								"{{host_url}}"
							],
							"path": [
								"api",
								"v1",
								"users",
								"forgot_password",
								"05c9e91cff265e76115a82727573e3a5"
							]
						}
					},
					"response": []
				},
				{
					"name": "-Users Upload icon",
					"request": {
						"auth": {
							"type": "bearer",
							"bearer": [
								{
									"key": "token",
									"value": "{{accessToken}}",
									"type": "string"
								}
							]
						},
						"method": "POST",
						"header": [],
						"body": {
							"mode": "formdata",
							"formdata": [
								{
									"key": "avatar",
									"type": "file",
									"src": "/C:/Users/dedoo/Downloads/Newfolder2/811526.jpg"
								},
								{
									"key": "device",
									"value": "{{device}}",
									"type": "text"
								}
							]
						},
						"url": {
							"raw": "{{host_url}}/api/v1/uploads/upload_user_icon",
							"host": [
								"{{host_url}}"
							],
							"path": [
								"api",
								"v1",
								"uploads",
								"upload_user_icon"
							]
						}
					},
					"response": []
				},
				{
					"name": "-Users Delete",
					"request": {
						"auth": {
							"type": "bearer",
							"bearer": [
								{
									"key": "token",
									"value": "{{accessToken}}",
									"type": "string"
								}
							]
						},
						"method": "POST",
						"header": [],
						"body": {
							"mode": "raw",
							"raw": "{\r\n    \"device\": {{device}}\r\n}",
							"options": {
								"raw": {
									"language": "json"
								}
							}
						},
						"url": {
							"raw": "{{host_url}}/api/v1/users/change_status/{{idKeyUser}}",
							"host": [
								"{{host_url}}"
							],
							"path": [
								"api",
								"v1",
								"users",
								"change_status",
								"{{idKeyUser}}"
							]
						}
					},
					"response": []
				},
				{
					"name": "+++User Get Settings",
					"request": {
						"auth": {
							"type": "bearer",
							"bearer": [
								{
									"key": "token",
									"value": "{{accessToken}}",
									"type": "string"
								}
							]
						},
						"method": "POST",
						"header": [],
						"body": {
							"mode": "raw",
							"raw": "{\r\n    \"device\": {{device}}\r\n     \r\n}",
							"options": {
								"raw": {
									"language": "json"
								}
							}
						},
						"url": {
							"raw": "{{host_url}}/api/v1/users/get_settings",
							"host": [
								"{{host_url}}"
							],
							"path": [
								"api",
								"v1",
								"users",
								"get_settings"
							]
						}
					},
					"response": []
				},
				{
					"name": "Doctor List All",
					"request": {
						"auth": {
							"type": "bearer",
							"bearer": [
								{
									"key": "token",
									"value": "{{accessToken}}",
									"type": "string"
								}
							]
						},
						"method": "POST",
						"header": [],
						"body": {
							"mode": "raw",
							"raw": "{\r\n    \"device\": {{device}}\r\n     \r\n}",
							"options": {
								"raw": {
									"language": "json"
								}
							}
						},
						"url": {
							"raw": "{{host_url}}/api/v1/users/list_all_doctors",
							"host": [
								"{{host_url}}"
							],
							"path": [
								"api",
								"v1",
								"users",
								"list_all_doctors"
							]
						}
					},
					"response": []
				}
			]
		},
		{
			"name": "Country",
			"item": [
				{
					"name": "+++get_all_countries",
					"request": {
						"method": "POST",
						"header": [],
						"body": {
							"mode": "raw",
							"raw": "{\r\n    \"device\":  {{device}}\r\n}",
							"options": {
								"raw": {
									"language": "json"
								}
							}
						},
						"url": {
							"raw": "{{host_url}}/api/v1/countries/get_all",
							"host": [
								"{{host_url}}"
							],
							"path": [
								"api",
								"v1",
								"countries",
								"get_all"
							]
						}
					},
					"response": []
				}
			]
		},
		{
			"name": "Currency Main",
			"item": [
				{
					"name": "+++get_all_currency",
					"request": {
						"method": "POST",
						"header": [],
						"body": {
							"mode": "raw",
							"raw": "{\r\n    \"device\":  {{device}}\r\n}",
							"options": {
								"raw": {
									"language": "json"
								}
							}
						},
						"url": {
							"raw": "{{host_url}}/api/v1/currencies/get_all",
							"host": [
								"{{host_url}}"
							],
							"path": [
								"api",
								"v1",
								"currencies",
								"get_all"
							]
						}
					},
					"response": []
				}
			]
		},
		{
			"name": "Packages",
			"item": [
				{
					"name": "+++get_all_package",
					"request": {
						"method": "POST",
						"header": [],
						"body": {
							"mode": "raw",
							"raw": "{\r\n    \"device\": {{device}}\r\n}",
							"options": {
								"raw": {
									"language": "json"
								}
							}
						},
						"url": {
							"raw": "{{host_url}}/api/v1/packages/get_all",
							"host": [
								"{{host_url}}"
							],
							"path": [
								"api",
								"v1",
								"packages",
								"get_all"
							]
						}
					},
					"response": []
				}
			]
		},
		{
			"name": "Clients",
			"item": [
				{
					"name": "DropClient",
					"request": {
						"method": "POST",
						"header": [],
						"body": {
							"mode": "raw",
							"raw": "{\r\n    \"device\": {{device}}\r\n}",
							"options": {
								"raw": {
									"language": "json"
								}
							}
						},
						"url": {
							"raw": "{{host_url}}/api/v1/users/drop_user_client/208",
							"host": [
								"{{host_url}}"
							],
							"path": [
								"api",
								"v1",
								"users",
								"drop_user_client",
								"208"
							]
						}
					},
					"response": []
				},
				{
					"name": "ClientBackup",
					"request": {
						"method": "POST",
						"header": [],
						"body": {
							"mode": "raw",
							"raw": "{\r\n    \"device\": {{device}}\r\n}",
							"options": {
								"raw": {
									"language": "json"
								}
							}
						},
						"url": {
							"raw": "{{host_url}}/api/v1/clients/backup",
							"host": [
								"{{host_url}}"
							],
							"path": [
								"api",
								"v1",
								"clients",
								"backup"
							]
						}
					},
					"response": []
				},
				{
					"name": "ClientBackupSingle",
					"request": {
						"method": "POST",
						"header": [],
						"body": {
							"mode": "raw",
							"raw": "{\r\n    \"device\": {{device}}\r\n}",
							"options": {
								"raw": {
									"language": "json"
								}
							}
						},
						"url": {
							"raw": "{{host_url}}/api/v1/clients/backup/182",
							"host": [
								"{{host_url}}"
							],
							"path": [
								"api",
								"v1",
								"clients",
								"backup",
								"182"
							]
						}
					},
					"response": []
				},
				{
					"name": "ClientAlterSingle",
					"request": {
						"method": "POST",
						"header": [],
						"body": {
							"mode": "raw",
							"raw": "{\r\n    \"device\": {{device}},\r\n    \"offset\": \"+180\"\r\n}",
							"options": {
								"raw": {
									"language": "json"
								}
							}
						},
						"url": {
							"raw": "{{host_url}}/api/v1/clients/alter/181",
							"host": [
								"{{host_url}}"
							],
							"path": [
								"api",
								"v1",
								"clients",
								"alter",
								"181"
							]
						}
					},
					"response": []
				},
				{
					"name": "ClientAlter_All",
					"request": {
						"method": "POST",
						"header": [],
						"body": {
							"mode": "raw",
							"raw": "{\r\n    \"device\": {{device}}\r\n}",
							"options": {
								"raw": {
									"language": "json"
								}
							}
						},
						"url": {
							"raw": "{{host_url}}/api/v1/clients/alter",
							"host": [
								"{{host_url}}"
							],
							"path": [
								"api",
								"v1",
								"clients",
								"alter"
							]
						}
					},
					"response": []
				},
				{
					"name": "HousamServerClientBackup",
					"request": {
						"method": "POST",
						"header": [],
						"body": {
							"mode": "raw",
							"raw": "{\r\n    \"device\": {{device}}\r\n}",
							"options": {
								"raw": {
									"language": "json"
								}
							}
						},
						"url": {
							"raw": "http://188.160.113.74:3066/api/v1/clients/backup",
							"protocol": "http",
							"host": [
								"188",
								"160",
								"113",
								"74"
							],
							"port": "3066",
							"path": [
								"api",
								"v1",
								"clients",
								"backup"
							]
						}
					},
					"response": []
				},
				{
					"name": "ItemsNoDublicate",
					"request": {
						"auth": {
							"type": "bearer",
							"bearer": [
								{
									"key": "token",
									"value": "{{accessToken}}",
									"type": "string"
								}
							]
						},
						"method": "POST",
						"header": [],
						"body": {
							"mode": "raw",
							"raw": "{\r\n    \"device\": {{device}}\r\n}",
							"options": {
								"raw": {
									"language": "json"
								}
							}
						},
						"url": {
							"raw": "{{host_url}}/api/v1/items/noDublicate",
							"host": [
								"{{host_url}}"
							],
							"path": [
								"api",
								"v1",
								"items",
								"noDublicate"
							]
						}
					},
					"response": []
				},
				{
					"name": "AccountsNoDublicate",
					"request": {
						"auth": {
							"type": "bearer",
							"bearer": [
								{
									"key": "token",
									"value": "{{accessToken}}",
									"type": "string"
								}
							]
						},
						"method": "POST",
						"header": [],
						"body": {
							"mode": "raw",
							"raw": "{\r\n    \"device\": {{device}}\r\n}",
							"options": {
								"raw": {
									"language": "json"
								}
							}
						},
						"url": {
							"raw": "{{host_url}}/api/v1/accounts/noDublicate",
							"host": [
								"{{host_url}}"
							],
							"path": [
								"api",
								"v1",
								"accounts",
								"noDublicate"
							]
						}
					},
					"response": []
				}
			]
		},
		{
			"name": "Currency",
			"item": [
				{
					"name": "Currerncy Save New",
					"request": {
						"auth": {
							"type": "bearer",
							"bearer": [
								{
									"key": "token",
									"value": "{{accessToken}}",
									"type": "string"
								}
							]
						},
						"method": "POST",
						"header": [],
						"body": {
							"mode": "raw",
							"raw": "{\r\n    \"device\": {{device}},\r\n     \"saveData\": {\r\n        \"currName\": \"Dinnar\",\r\n        \"currNameEn\": \"\",\r\n        \"currSimbol\": \"DR\",\r\n        \"currIsDefault\": 1\r\n    }\r\n}",
							"options": {
								"raw": {
									"language": "json"
								}
							}
						},
						"url": {
							"raw": "{{host_url}}/api/v1/currency/save",
							"host": [
								"{{host_url}}"
							],
							"path": [
								"api",
								"v1",
								"currency",
								"save"
							]
						}
					},
					"response": []
				},
				{
					"name": "Currerncy Save Update",
					"request": {
						"auth": {
							"type": "bearer",
							"bearer": [
								{
									"key": "token",
									"value": "{{accessToken}}",
									"type": "string"
								}
							]
						},
						"method": "POST",
						"header": [],
						"body": {
							"mode": "raw",
							"raw": "{\r\n    \"device\": {{device}},\r\n     \"saveData\": {\r\n         \"currName\": \"Dinnar1\",\r\n        \"currNameEn\": \"\",\r\n        \"currSimbol\": \"DR\",\r\n        \"currIsDefault\": 1\r\n    }\r\n}",
							"options": {
								"raw": {
									"language": "json"
								}
							}
						},
						"url": {
							"raw": "{{host_url}}/api/v1/currency/save/c77ddeff4be08734bccf4e847010b870",
							"host": [
								"{{host_url}}"
							],
							"path": [
								"api",
								"v1",
								"currency",
								"save",
								"c77ddeff4be08734bccf4e847010b870"
							]
						}
					},
					"response": []
				},
				{
					"name": "Currerncy Get One",
					"request": {
						"auth": {
							"type": "bearer",
							"bearer": [
								{
									"key": "token",
									"value": "{{accessToken}}",
									"type": "string"
								}
							]
						},
						"method": "POST",
						"header": [],
						"body": {
							"mode": "raw",
							"raw": "{\r\n    \"device\": {{device}}\r\n}",
							"options": {
								"raw": {
									"language": "json"
								}
							}
						},
						"url": {
							"raw": "{{host_url}}/api/v1/currency/get_one/c77ddeff4be08734bccf4e847010b870",
							"host": [
								"{{host_url}}"
							],
							"path": [
								"api",
								"v1",
								"currency",
								"get_one",
								"c77ddeff4be08734bccf4e847010b870"
							]
						}
					},
					"response": []
				},
				{
					"name": "Currerncy Get One PK",
					"request": {
						"auth": {
							"type": "bearer",
							"bearer": [
								{
									"key": "token",
									"value": "{{accessToken}}",
									"type": "string"
								}
							]
						},
						"method": "POST",
						"header": [],
						"body": {
							"mode": "raw",
							"raw": "{\r\n    \"device\": {{device}}\r\n}",
							"options": {
								"raw": {
									"language": "json"
								}
							}
						},
						"url": {
							"raw": "{{host_url}}/api/v1/currency/get_one_pk/1",
							"host": [
								"{{host_url}}"
							],
							"path": [
								"api",
								"v1",
								"currency",
								"get_one_pk",
								"1"
							]
						}
					},
					"response": []
				},
				{
					"name": "Currerncy Fill All",
					"request": {
						"auth": {
							"type": "bearer",
							"bearer": [
								{
									"key": "token",
									"value": "{{accessToken}}",
									"type": "string"
								}
							]
						},
						"method": "POST",
						"header": [],
						"body": {
							"mode": "raw",
							"raw": "{\r\n    \"device\": {{device}}\r\n}",
							"options": {
								"raw": {
									"language": "json"
								}
							}
						},
						"url": {
							"raw": "{{host_url}}/api/v1/currency/list_all",
							"host": [
								"{{host_url}}"
							],
							"path": [
								"api",
								"v1",
								"currency",
								"list_all"
							]
						}
					},
					"response": []
				},
				{
					"name": "Currerncy List",
					"request": {
						"auth": {
							"type": "bearer",
							"bearer": [
								{
									"key": "token",
									"value": "{{accessToken}}",
									"type": "string"
								}
							]
						},
						"method": "POST",
						"header": [],
						"body": {
							"mode": "raw",
							"raw": "{\r\n    \"device\": {{device}},\r\n     \"paginationData\": {\r\n        \"page\" : 0,\r\n        \"perPage\" : 10,\r\n        \"q\": \"\",\r\n        \"filter\": {\r\n        },\r\n        \"sort\":{ \r\n            \"accGrpName\":\"ASC\"\r\n        }\r\n    }\r\n}",
							"options": {
								"raw": {
									"language": "json"
								}
							}
						},
						"url": {
							"raw": "{{host_url}}/api/v1/currency/list",
							"host": [
								"{{host_url}}"
							],
							"path": [
								"api",
								"v1",
								"currency",
								"list"
							]
						}
					},
					"response": []
				},
				{
					"name": "Currerncy Delete",
					"request": {
						"auth": {
							"type": "bearer",
							"bearer": [
								{
									"key": "token",
									"value": "{{accessToken}}",
									"type": "string"
								}
							]
						},
						"method": "POST",
						"header": [],
						"body": {
							"mode": "raw",
							"raw": "{\r\n    \"device\": {{device}}\r\n}",
							"options": {
								"raw": {
									"language": "json"
								}
							}
						},
						"url": {
							"raw": "{{host_url}}/api/v1/currency/delete/b326d7ce8c903209628cb0fa2b366bcc",
							"host": [
								"{{host_url}}"
							],
							"path": [
								"api",
								"v1",
								"currency",
								"delete",
								"b326d7ce8c903209628cb0fa2b366bcc"
							]
						}
					},
					"response": []
				},
				{
					"name": "Currerncy Status Active",
					"request": {
						"auth": {
							"type": "bearer",
							"bearer": [
								{
									"key": "token",
									"value": "{{accessToken}}",
									"type": "string"
								}
							]
						},
						"method": "POST",
						"header": [],
						"body": {
							"mode": "raw",
							"raw": "{\r\n    \"device\": {{device}}\r\n}",
							"options": {
								"raw": {
									"language": "json"
								}
							}
						},
						"url": {
							"raw": "{{host_url}}/api/v1/currency/change_status/active/e0affad6d80533785b93c579485d52f0",
							"host": [
								"{{host_url}}"
							],
							"path": [
								"api",
								"v1",
								"currency",
								"change_status",
								"active",
								"e0affad6d80533785b93c579485d52f0"
							]
						}
					},
					"response": []
				},
				{
					"name": "Currerncy Status InActive",
					"request": {
						"auth": {
							"type": "bearer",
							"bearer": [
								{
									"key": "token",
									"value": "{{accessToken}}",
									"type": "string"
								}
							]
						},
						"method": "POST",
						"header": [],
						"body": {
							"mode": "raw",
							"raw": "{\r\n    \"device\": {{device}}\r\n}",
							"options": {
								"raw": {
									"language": "json"
								}
							}
						},
						"url": {
							"raw": "{{host_url}}/api/v1/currency/change_status/inactive/e0affad6d80533785b93c579485d52f0",
							"host": [
								"{{host_url}}"
							],
							"path": [
								"api",
								"v1",
								"currency",
								"change_status",
								"inactive",
								"e0affad6d80533785b93c579485d52f0"
							]
						}
					},
					"response": []
				}
			]
		},
		{
			"name": "Patient",
			"item": [
				{
					"name": "+++Patient Save",
					"request": {
						"auth": {
							"type": "bearer",
							"bearer": [
								{
									"key": "token",
									"value": "{{accessToken}}",
									"type": "string"
								}
							]
						},
						"method": "POST",
						"header": [],
						"body": {
							"mode": "raw",
							"raw": "{\r\n    \"device\": {{device}},\r\n     \"saveData\": {\r\n        \"patientName\": \"Eyad Hossary 18\",\r\n        \"email\" : \"dedooj9@gmail.com\",\r\n        \"phoneCode\": \"+963\",\r\n        \"phoneNumber\": \"930492567\",\r\n        \"Generd\": 1,\r\n        \"description\": \"test\",\r\n        \"shareDoctor\": [],\r\n        \"idDoctor\": 91,\r\n        \"icon\": \"public\\\\tmp\\\\8ddddd0rgghdu81119re80gg.jpg\"\r\n    }\r\n}",
							"options": {
								"raw": {
									"language": "json"
								}
							}
						},
						"url": {
							"raw": "{{host_url}}/api/v1/patients/save/",
							"host": [
								"{{host_url}}"
							],
							"path": [
								"api",
								"v1",
								"patients",
								"save",
								""
							]
						}
					},
					"response": []
				},
				{
					"name": "+++Patient Save Update",
					"request": {
						"auth": {
							"type": "bearer",
							"bearer": [
								{
									"key": "token",
									"value": "{{accessToken}}",
									"type": "string"
								}
							]
						},
						"method": "POST",
						"header": [],
						"body": {
							"mode": "raw",
							"raw": "{\r\n    \"device\": {{device}},\r\n     \"saveData\": {\r\n        \"patientName\": \"Eyad Hossary 8\",\r\n        \"email\" : \"dedooj8@gmail.com\",\r\n        \"phoneCode\": \"+963\",\r\n        \"phoneNumber\": \"930492567\",\r\n        \"Generd\": 1,\r\n        \"description\": \"test\",\r\n        \"shareDoctor\": [90, 91],\r\n        \"icon\": null\r\n    }\r\n}",
							"options": {
								"raw": {
									"language": "json"
								}
							}
						},
						"url": {
							"raw": "{{host_url}}/api/v1/patients/save/9b74f137092e69838527a2a65e417825",
							"host": [
								"{{host_url}}"
							],
							"path": [
								"api",
								"v1",
								"patients",
								"save",
								"9b74f137092e69838527a2a65e417825"
							]
						}
					},
					"response": []
				},
				{
					"name": "Patient Get One",
					"request": {
						"auth": {
							"type": "bearer",
							"bearer": [
								{
									"key": "token",
									"value": "{{accessToken}}",
									"type": "string"
								}
							]
						},
						"method": "POST",
						"header": [],
						"body": {
							"mode": "raw",
							"raw": "{\r\n    \"device\": {{device}}\r\n}",
							"options": {
								"raw": {
									"language": "json"
								}
							}
						},
						"url": {
							"raw": "{{host_url}}/api/v1/patients/get_one/2e2afa3c486695983186b1f8ca8ab878",
							"host": [
								"{{host_url}}"
							],
							"path": [
								"api",
								"v1",
								"patients",
								"get_one",
								"2e2afa3c486695983186b1f8ca8ab878"
							]
						}
					},
					"response": []
				},
				{
					"name": "Patient List",
					"request": {
						"auth": {
							"type": "bearer",
							"bearer": [
								{
									"key": "token",
									"value": "{{accessToken}}",
									"type": "string"
								}
							]
						},
						"method": "POST",
						"header": [],
						"body": {
							"mode": "raw",
							"raw": "{\r\n    \"device\": {{device}},\r\n     \"paginationData\": {\r\n        \"page\" : 0,\r\n        \"perPage\" : 10,\r\n        \"q\": \"\",\r\n        \"filter\": {\r\n            \"fromDate\": \"2022-10-30T15:11:43.219Z\",\r\n            \"toDate\": \"2022-10-30T15:11:43.219Z\"\r\n        },\r\n        \"sort\":{ \r\n            \"patientName\":\"ASC\",\r\n            \"fromDate\":\"\",\r\n            \"toDate\":\"\"\r\n        }\r\n    }\r\n}",
							"options": {
								"raw": {
									"language": "json"
								}
							}
						},
						"url": {
							"raw": "{{host_url}}/api/v1/patients/list",
							"host": [
								"{{host_url}}"
							],
							"path": [
								"api",
								"v1",
								"patients",
								"list"
							]
						}
					},
					"response": []
				},
				{
					"name": "Patient Fill All",
					"request": {
						"auth": {
							"type": "bearer",
							"bearer": [
								{
									"key": "token",
									"value": "{{accessToken}}",
									"type": "string"
								}
							]
						},
						"method": "POST",
						"header": [],
						"body": {
							"mode": "raw",
							"raw": "{\r\n        \"device\": {{device}}\r\n}",
							"options": {
								"raw": {
									"language": "json"
								}
							}
						},
						"url": {
							"raw": "{{host_url}}/api/v1/patients/list_all",
							"host": [
								"{{host_url}}"
							],
							"path": [
								"api",
								"v1",
								"patients",
								"list_all"
							]
						}
					},
					"response": []
				},
				{
					"name": "Patient Delete",
					"request": {
						"auth": {
							"type": "bearer",
							"bearer": [
								{
									"key": "token",
									"value": "{{accessToken}}",
									"type": "string"
								}
							]
						},
						"method": "POST",
						"header": [],
						"body": {
							"mode": "raw",
							"raw": "{\r\n    \"device\": {{device}}\r\n}",
							"options": {
								"raw": {
									"language": "json"
								}
							}
						},
						"url": {
							"raw": "{{host_url}}/api/v1/patients/delete/b40f799f4d9eb700eea59c14c47ba3fc",
							"host": [
								"{{host_url}}"
							],
							"path": [
								"api",
								"v1",
								"patients",
								"delete",
								"b40f799f4d9eb700eea59c14c47ba3fc"
							]
						}
					},
					"response": []
				},
				{
					"name": "Patient Status Active",
					"request": {
						"auth": {
							"type": "bearer",
							"bearer": [
								{
									"key": "token",
									"value": "{{accessToken}}",
									"type": "string"
								}
							]
						},
						"method": "POST",
						"header": [],
						"body": {
							"mode": "raw",
							"raw": "{\r\n    \"device\": {{device}}\r\n}",
							"options": {
								"raw": {
									"language": "json"
								}
							}
						},
						"url": {
							"raw": "{{host_url}}/api/v1/patients/change_status/active/1f7603b8d4cd523fa0f8751ee396e8f0",
							"host": [
								"{{host_url}}"
							],
							"path": [
								"api",
								"v1",
								"patients",
								"change_status",
								"active",
								"1f7603b8d4cd523fa0f8751ee396e8f0"
							]
						}
					},
					"response": []
				},
				{
					"name": "Patient Status InActive",
					"request": {
						"auth": {
							"type": "bearer",
							"bearer": [
								{
									"key": "token",
									"value": "{{accessToken}}",
									"type": "string"
								}
							]
						},
						"method": "POST",
						"header": [],
						"body": {
							"mode": "raw",
							"raw": "{\r\n    \"device\": {{device}}\r\n}",
							"options": {
								"raw": {
									"language": "json"
								}
							}
						},
						"url": {
							"raw": "{{host_url}}/api/v1/patients/change_status/inactive/1f7603b8d4cd523fa0f8751ee396e8f0",
							"host": [
								"{{host_url}}"
							],
							"path": [
								"api",
								"v1",
								"patients",
								"change_status",
								"inactive",
								"1f7603b8d4cd523fa0f8751ee396e8f0"
							]
						}
					},
					"response": []
				},
				{
					"name": "Patient Get One PK",
					"request": {
						"auth": {
							"type": "bearer",
							"bearer": [
								{
									"key": "token",
									"value": "{{accessToken}}",
									"type": "string"
								}
							]
						},
						"method": "POST",
						"header": [],
						"body": {
							"mode": "raw",
							"raw": "{\r\n    \"device\": {{device}}\r\n}",
							"options": {
								"raw": {
									"language": "json"
								}
							}
						},
						"url": {
							"raw": "{{host_url}}/api/v1/patients/get_one_pk/1",
							"host": [
								"{{host_url}}"
							],
							"path": [
								"api",
								"v1",
								"patients",
								"get_one_pk",
								"1"
							]
						}
					},
					"response": []
				}
			]
		},
		{
			"name": "Diagnosies",
			"item": [
				{
					"name": "+++Diagnosies Save",
					"request": {
						"auth": {
							"type": "bearer",
							"bearer": [
								{
									"key": "token",
									"value": "{{accessToken}}",
									"type": "string"
								}
							]
						},
						"method": "POST",
						"header": [],
						"body": {
							"mode": "raw",
							"raw": "{\r\n    \"device\": {{device}},\r\n     \"saveData\": {\r\n        \"diagnosiesName\": \"Eyad Hossary 8\",\r\n        \"optionListType\": 1,\r\n        \"type\": 2,\r\n        \"description\": \"test\",\r\n        \"optionList\": []\r\n    }\r\n}",
							"options": {
								"raw": {
									"language": "json"
								}
							}
						},
						"url": {
							"raw": "{{host_url}}/api/v1/diagnosieis/save/",
							"host": [
								"{{host_url}}"
							],
							"path": [
								"api",
								"v1",
								"diagnosieis",
								"save",
								""
							]
						}
					},
					"response": []
				},
				{
					"name": "+++Diagnosies Save Update",
					"request": {
						"auth": {
							"type": "bearer",
							"bearer": [
								{
									"key": "token",
									"value": "{{accessToken}}",
									"type": "string"
								}
							]
						},
						"method": "POST",
						"header": [],
						"body": {
							"mode": "raw",
							"raw": "{\r\n    \"device\": {{device}},\r\n     \"saveData\": {\r\n        \"diagnosiesName\": \"Eyad Hossary 9\",\r\n        \"optionListType\": 1,\r\n        \"type\": 1,\r\n        \"description\": \"test\",\r\n        \"optionList\": [{\"name\": \"test\", \"type\": \"test\", \"note\": \"test\"}]\r\n    }\r\n}",
							"options": {
								"raw": {
									"language": "json"
								}
							}
						},
						"url": {
							"raw": "{{host_url}}/api/v1/diagnosieis/save/204e15034bfb89d1177a3962948b4308",
							"host": [
								"{{host_url}}"
							],
							"path": [
								"api",
								"v1",
								"diagnosieis",
								"save",
								"204e15034bfb89d1177a3962948b4308"
							]
						}
					},
					"response": []
				},
				{
					"name": "Diagnosies Get One",
					"request": {
						"auth": {
							"type": "bearer",
							"bearer": [
								{
									"key": "token",
									"value": "{{accessToken}}",
									"type": "string"
								}
							]
						},
						"method": "POST",
						"header": [],
						"body": {
							"mode": "raw",
							"raw": "{\r\n    \"device\": {{device}}\r\n}",
							"options": {
								"raw": {
									"language": "json"
								}
							}
						},
						"url": {
							"raw": "{{host_url}}/api/v1/diagnosieis/get_one/204e15034bfb89d1177a3962948b4308",
							"host": [
								"{{host_url}}"
							],
							"path": [
								"api",
								"v1",
								"diagnosieis",
								"get_one",
								"204e15034bfb89d1177a3962948b4308"
							]
						}
					},
					"response": []
				},
				{
					"name": "Diagnosies Get By Type",
					"request": {
						"auth": {
							"type": "bearer",
							"bearer": [
								{
									"key": "token",
									"value": "{{accessToken}}",
									"type": "string"
								}
							]
						},
						"method": "POST",
						"header": [],
						"body": {
							"mode": "raw",
							"raw": "{\r\n    \"device\": {{device}}\r\n}",
							"options": {
								"raw": {
									"language": "json"
								}
							}
						},
						"url": {
							"raw": "{{host_url}}/api/v1/diagnosieis/get_by_type/1",
							"host": [
								"{{host_url}}"
							],
							"path": [
								"api",
								"v1",
								"diagnosieis",
								"get_by_type",
								"1"
							]
						}
					},
					"response": []
				},
				{
					"name": "Diagnosies List",
					"request": {
						"auth": {
							"type": "bearer",
							"bearer": [
								{
									"key": "token",
									"value": "{{accessToken}}",
									"type": "string"
								}
							]
						},
						"method": "POST",
						"header": [],
						"body": {
							"mode": "raw",
							"raw": "{\r\n    \"device\": {{device}},\r\n     \"paginationData\": {\r\n        \"page\" : 0,\r\n        \"perPage\" : 10,\r\n        \"q\": \"\",\r\n        \"filter\": {\r\n        },\r\n        \"sort\":{ \r\n            \"diagnosiesName\":\"ASC\",\r\n            \"fromDate\":\"\",\r\n            \"toDate\":\"\"\r\n        }\r\n    }\r\n}",
							"options": {
								"raw": {
									"language": "json"
								}
							}
						},
						"url": {
							"raw": "{{host_url}}/api/v1/diagnosieis/list",
							"host": [
								"{{host_url}}"
							],
							"path": [
								"api",
								"v1",
								"diagnosieis",
								"list"
							]
						}
					},
					"response": []
				},
				{
					"name": "Diagnosies Fill All",
					"request": {
						"auth": {
							"type": "bearer",
							"bearer": [
								{
									"key": "token",
									"value": "{{accessToken}}",
									"type": "string"
								}
							]
						},
						"method": "POST",
						"header": [],
						"body": {
							"mode": "raw",
							"raw": "{\r\n        \"device\": {{device}}\r\n}",
							"options": {
								"raw": {
									"language": "json"
								}
							}
						},
						"url": {
							"raw": "{{host_url}}/api/v1/diagnosieis/list_all",
							"host": [
								"{{host_url}}"
							],
							"path": [
								"api",
								"v1",
								"diagnosieis",
								"list_all"
							]
						}
					},
					"response": []
				},
				{
					"name": "Diagnosies Delete",
					"request": {
						"auth": {
							"type": "bearer",
							"bearer": [
								{
									"key": "token",
									"value": "{{accessToken}}",
									"type": "string"
								}
							]
						},
						"method": "POST",
						"header": [],
						"body": {
							"mode": "raw",
							"raw": "{\r\n    \"device\": {{device}}\r\n}",
							"options": {
								"raw": {
									"language": "json"
								}
							}
						},
						"url": {
							"raw": "{{host_url}}/api/v1/diagnosieis/delete/204e15034bfb89d1177a3962948b4308",
							"host": [
								"{{host_url}}"
							],
							"path": [
								"api",
								"v1",
								"diagnosieis",
								"delete",
								"204e15034bfb89d1177a3962948b4308"
							]
						}
					},
					"response": []
				},
				{
					"name": "Diagnosies Status Active",
					"request": {
						"auth": {
							"type": "bearer",
							"bearer": [
								{
									"key": "token",
									"value": "{{accessToken}}",
									"type": "string"
								}
							]
						},
						"method": "POST",
						"header": [],
						"body": {
							"mode": "raw",
							"raw": "{\r\n    \"device\": {{device}}\r\n}",
							"options": {
								"raw": {
									"language": "json"
								}
							}
						},
						"url": {
							"raw": "{{host_url}}/api/v1/diagnosieis/change_status/active/204e15034bfb89d1177a3962948b4308",
							"host": [
								"{{host_url}}"
							],
							"path": [
								"api",
								"v1",
								"diagnosieis",
								"change_status",
								"active",
								"204e15034bfb89d1177a3962948b4308"
							]
						}
					},
					"response": []
				},
				{
					"name": "Diagnosies Status InActive",
					"request": {
						"auth": {
							"type": "bearer",
							"bearer": [
								{
									"key": "token",
									"value": "{{accessToken}}",
									"type": "string"
								}
							]
						},
						"method": "POST",
						"header": [],
						"body": {
							"mode": "raw",
							"raw": "{\r\n    \"device\": {{device}}\r\n}",
							"options": {
								"raw": {
									"language": "json"
								}
							}
						},
						"url": {
							"raw": "{{host_url}}/api/v1/diagnosieis/change_status/inactive/204e15034bfb89d1177a3962948b4308",
							"host": [
								"{{host_url}}"
							],
							"path": [
								"api",
								"v1",
								"diagnosieis",
								"change_status",
								"inactive",
								"204e15034bfb89d1177a3962948b4308"
							]
						}
					},
					"response": []
				},
				{
					"name": "Diagnosies Get One PK",
					"request": {
						"auth": {
							"type": "bearer",
							"bearer": [
								{
									"key": "token",
									"value": "{{accessToken}}",
									"type": "string"
								}
							]
						},
						"method": "POST",
						"header": [],
						"body": {
							"mode": "raw",
							"raw": "{\r\n    \"device\": {{device}}\r\n}",
							"options": {
								"raw": {
									"language": "json"
								}
							}
						},
						"url": {
							"raw": "{{host_url}}/api/v1/patients/get_one_pk/1",
							"host": [
								"{{host_url}}"
							],
							"path": [
								"api",
								"v1",
								"patients",
								"get_one_pk",
								"1"
							]
						}
					},
					"response": []
				}
			]
		},
		{
			"name": "Treatment",
			"item": [
				{
					"name": "+++Treatment Save",
					"request": {
						"auth": {
							"type": "bearer",
							"bearer": [
								{
									"key": "token",
									"value": "{{accessToken}}",
									"type": "string"
								}
							]
						},
						"method": "POST",
						"header": [],
						"body": {
							"mode": "raw",
							"raw": "{\r\n    \"device\": {{device}},\r\n     \"saveData\": {\r\n        \"treatmentsName\": \"Eyad Hossary 8\",\r\n        \"optionListType\": 1,\r\n        \"type\": 1,\r\n        \"description\": \"test\",\r\n        \"optionList\": []\r\n    }\r\n}",
							"options": {
								"raw": {
									"language": "json"
								}
							}
						},
						"url": {
							"raw": "{{host_url}}/api/v1/treatments/save/",
							"host": [
								"{{host_url}}"
							],
							"path": [
								"api",
								"v1",
								"treatments",
								"save",
								""
							]
						}
					},
					"response": []
				},
				{
					"name": "+++Treatment Save Update",
					"request": {
						"auth": {
							"type": "bearer",
							"bearer": [
								{
									"key": "token",
									"value": "{{accessToken}}",
									"type": "string"
								}
							]
						},
						"method": "POST",
						"header": [],
						"body": {
							"mode": "raw",
							"raw": "{\r\n    \"device\": {{device}},\r\n     \"saveData\": {\r\n        \"treatmentsName\": \"Eyad Hossary 9\",\r\n        \"optionListType\": 1,\r\n        \"type\": 1,\r\n        \"description\": \"test\",\r\n        \"optionList\": [{\"name\": \"test\", \"type\": \"test\", \"note\": \"test\"}]\r\n    }\r\n}",
							"options": {
								"raw": {
									"language": "json"
								}
							}
						},
						"url": {
							"raw": "{{host_url}}/api/v1/treatments/save/4fe515ae107a6a4aa6464c08e3b26f9a",
							"host": [
								"{{host_url}}"
							],
							"path": [
								"api",
								"v1",
								"treatments",
								"save",
								"4fe515ae107a6a4aa6464c08e3b26f9a"
							]
						}
					},
					"response": []
				},
				{
					"name": "Treatment Get One",
					"request": {
						"auth": {
							"type": "bearer",
							"bearer": [
								{
									"key": "token",
									"value": "{{accessToken}}",
									"type": "string"
								}
							]
						},
						"method": "POST",
						"header": [],
						"body": {
							"mode": "raw",
							"raw": "{\r\n    \"device\": {{device}}\r\n}",
							"options": {
								"raw": {
									"language": "json"
								}
							}
						},
						"url": {
							"raw": "{{host_url}}/api/v1/treatments/get_one/4fe515ae107a6a4aa6464c08e3b26f9a",
							"host": [
								"{{host_url}}"
							],
							"path": [
								"api",
								"v1",
								"treatments",
								"get_one",
								"4fe515ae107a6a4aa6464c08e3b26f9a"
							]
						}
					},
					"response": []
				},
				{
					"name": "Treatment Get By Type",
					"request": {
						"auth": {
							"type": "bearer",
							"bearer": [
								{
									"key": "token",
									"value": "{{accessToken}}",
									"type": "string"
								}
							]
						},
						"method": "POST",
						"header": [],
						"body": {
							"mode": "raw",
							"raw": "{\r\n    \"device\": {{device}}\r\n}",
							"options": {
								"raw": {
									"language": "json"
								}
							}
						},
						"url": {
							"raw": "{{host_url}}/api/v1/treatments/get_by_type/1",
							"host": [
								"{{host_url}}"
							],
							"path": [
								"api",
								"v1",
								"treatments",
								"get_by_type",
								"1"
							]
						}
					},
					"response": []
				},
				{
					"name": "Treatment List",
					"request": {
						"auth": {
							"type": "bearer",
							"bearer": [
								{
									"key": "token",
									"value": "{{accessToken}}",
									"type": "string"
								}
							]
						},
						"method": "POST",
						"header": [],
						"body": {
							"mode": "raw",
							"raw": "{\r\n    \"device\": {{device}},\r\n     \"paginationData\": {\r\n        \"page\" : 0,\r\n        \"perPage\" : 10,\r\n        \"q\": \"\",\r\n        \"filter\": {\r\n        },\r\n        \"sort\":{ \r\n            \"treatmentsName\":\"ASC\",\r\n            \"fromDate\":\"\",\r\n            \"toDate\":\"\"\r\n        }\r\n    }\r\n}",
							"options": {
								"raw": {
									"language": "json"
								}
							}
						},
						"url": {
							"raw": "{{host_url}}/api/v1/treatments/list",
							"host": [
								"{{host_url}}"
							],
							"path": [
								"api",
								"v1",
								"treatments",
								"list"
							]
						}
					},
					"response": []
				},
				{
					"name": "Treatment Fill All",
					"request": {
						"auth": {
							"type": "bearer",
							"bearer": [
								{
									"key": "token",
									"value": "{{accessToken}}",
									"type": "string"
								}
							]
						},
						"method": "POST",
						"header": [],
						"body": {
							"mode": "raw",
							"raw": "{\r\n        \"device\": {{device}}\r\n}",
							"options": {
								"raw": {
									"language": "json"
								}
							}
						},
						"url": {
							"raw": "{{host_url}}/api/v1/treatments/list_all",
							"host": [
								"{{host_url}}"
							],
							"path": [
								"api",
								"v1",
								"treatments",
								"list_all"
							]
						}
					},
					"response": []
				},
				{
					"name": "Treatment Delete",
					"request": {
						"auth": {
							"type": "bearer",
							"bearer": [
								{
									"key": "token",
									"value": "{{accessToken}}",
									"type": "string"
								}
							]
						},
						"method": "POST",
						"header": [],
						"body": {
							"mode": "raw",
							"raw": "{\r\n    \"device\": {{device}}\r\n}",
							"options": {
								"raw": {
									"language": "json"
								}
							}
						},
						"url": {
							"raw": "{{host_url}}/api/v1/treatments/delete/4fe515ae107a6a4aa6464c08e3b26f9a",
							"host": [
								"{{host_url}}"
							],
							"path": [
								"api",
								"v1",
								"treatments",
								"delete",
								"4fe515ae107a6a4aa6464c08e3b26f9a"
							]
						}
					},
					"response": []
				},
				{
					"name": "Treatment Status Active",
					"request": {
						"auth": {
							"type": "bearer",
							"bearer": [
								{
									"key": "token",
									"value": "{{accessToken}}",
									"type": "string"
								}
							]
						},
						"method": "POST",
						"header": [],
						"body": {
							"mode": "raw",
							"raw": "{\r\n    \"device\": {{device}}\r\n}",
							"options": {
								"raw": {
									"language": "json"
								}
							}
						},
						"url": {
							"raw": "{{host_url}}/api/v1/treatments/change_status/active/4fe515ae107a6a4aa6464c08e3b26f9a",
							"host": [
								"{{host_url}}"
							],
							"path": [
								"api",
								"v1",
								"treatments",
								"change_status",
								"active",
								"4fe515ae107a6a4aa6464c08e3b26f9a"
							]
						}
					},
					"response": []
				},
				{
					"name": "Treatment Status InActive",
					"request": {
						"auth": {
							"type": "bearer",
							"bearer": [
								{
									"key": "token",
									"value": "{{accessToken}}",
									"type": "string"
								}
							]
						},
						"method": "POST",
						"header": [],
						"body": {
							"mode": "raw",
							"raw": "{\r\n    \"device\": {{device}}\r\n}",
							"options": {
								"raw": {
									"language": "json"
								}
							}
						},
						"url": {
							"raw": "{{host_url}}/api/v1/treatments/change_status/inactive/4fe515ae107a6a4aa6464c08e3b26f9a",
							"host": [
								"{{host_url}}"
							],
							"path": [
								"api",
								"v1",
								"treatments",
								"change_status",
								"inactive",
								"4fe515ae107a6a4aa6464c08e3b26f9a"
							]
						}
					},
					"response": []
				},
				{
					"name": "Treatment Get One PK",
					"request": {
						"auth": {
							"type": "bearer",
							"bearer": [
								{
									"key": "token",
									"value": "{{accessToken}}",
									"type": "string"
								}
							]
						},
						"method": "POST",
						"header": [],
						"body": {
							"mode": "raw",
							"raw": "{\r\n    \"device\": {{device}}\r\n}",
							"options": {
								"raw": {
									"language": "json"
								}
							}
						},
						"url": {
							"raw": "{{host_url}}/api/v1/treatments/get_one_pk/1",
							"host": [
								"{{host_url}}"
							],
							"path": [
								"api",
								"v1",
								"treatments",
								"get_one_pk",
								"1"
							]
						}
					},
					"response": []
				}
			]
		},
		{
			"name": "Stages",
			"item": [
				{
					"name": "+++Stages Save",
					"request": {
						"auth": {
							"type": "bearer",
							"bearer": [
								{
									"key": "token",
									"value": "{{accessToken}}",
									"type": "string"
								}
							]
						},
						"method": "POST",
						"header": [],
						"body": {
							"mode": "raw",
							"raw": "{\r\n    \"device\": {{device}},\r\n     \"saveData\": {\r\n        \"stageName\": \"Eyad Hossary 8\",\r\n        \"description\": \"test\"\r\n    }\r\n}",
							"options": {
								"raw": {
									"language": "json"
								}
							}
						},
						"url": {
							"raw": "{{host_url}}/api/v1/stages/save/",
							"host": [
								"{{host_url}}"
							],
							"path": [
								"api",
								"v1",
								"stages",
								"save",
								""
							]
						}
					},
					"response": []
				},
				{
					"name": "+++Stages Save Update",
					"request": {
						"auth": {
							"type": "bearer",
							"bearer": [
								{
									"key": "token",
									"value": "{{accessToken}}",
									"type": "string"
								}
							]
						},
						"method": "POST",
						"header": [],
						"body": {
							"mode": "raw",
							"raw": "{\r\n    \"device\": {{device}},\r\n     \"saveData\": {\r\n        \"stageName\": \"Eyad Hossary 9\",\r\n        \"description\": \"test\"\r\n    }\r\n}",
							"options": {
								"raw": {
									"language": "json"
								}
							}
						},
						"url": {
							"raw": "{{host_url}}/api/v1/stages/save/a1604899fd25228ac9249c25d60a7a22",
							"host": [
								"{{host_url}}"
							],
							"path": [
								"api",
								"v1",
								"stages",
								"save",
								"a1604899fd25228ac9249c25d60a7a22"
							]
						}
					},
					"response": []
				},
				{
					"name": "Stages Get One",
					"request": {
						"auth": {
							"type": "bearer",
							"bearer": [
								{
									"key": "token",
									"value": "{{accessToken}}",
									"type": "string"
								}
							]
						},
						"method": "POST",
						"header": [],
						"body": {
							"mode": "raw",
							"raw": "{\r\n    \"device\": {{device}}\r\n}",
							"options": {
								"raw": {
									"language": "json"
								}
							}
						},
						"url": {
							"raw": "{{host_url}}/api/v1/stages/get_one/a1604899fd25228ac9249c25d60a7a22",
							"host": [
								"{{host_url}}"
							],
							"path": [
								"api",
								"v1",
								"stages",
								"get_one",
								"a1604899fd25228ac9249c25d60a7a22"
							]
						}
					},
					"response": []
				},
				{
					"name": "Stages List",
					"request": {
						"auth": {
							"type": "bearer",
							"bearer": [
								{
									"key": "token",
									"value": "{{accessToken}}",
									"type": "string"
								}
							]
						},
						"method": "POST",
						"header": [],
						"body": {
							"mode": "raw",
							"raw": "{\r\n    \"device\": {{device}},\r\n     \"paginationData\": {\r\n        \"page\" : 0,\r\n        \"perPage\" : 10,\r\n        \"q\": \"\",\r\n        \"filter\": {\r\n        },\r\n        \"sort\":{ \r\n            \"stageName\":\"ASC\",\r\n            \"fromDate\":\"\",\r\n            \"toDate\":\"\"\r\n        }\r\n    }\r\n}",
							"options": {
								"raw": {
									"language": "json"
								}
							}
						},
						"url": {
							"raw": "{{host_url}}/api/v1/stages/list",
							"host": [
								"{{host_url}}"
							],
							"path": [
								"api",
								"v1",
								"stages",
								"list"
							]
						}
					},
					"response": []
				},
				{
					"name": "Stages Fill All",
					"request": {
						"auth": {
							"type": "bearer",
							"bearer": [
								{
									"key": "token",
									"value": "{{accessToken}}",
									"type": "string"
								}
							]
						},
						"method": "POST",
						"header": [],
						"body": {
							"mode": "raw",
							"raw": "{\r\n        \"device\": {{device}}\r\n}",
							"options": {
								"raw": {
									"language": "json"
								}
							}
						},
						"url": {
							"raw": "{{host_url}}/api/v1/stages/list_all",
							"host": [
								"{{host_url}}"
							],
							"path": [
								"api",
								"v1",
								"stages",
								"list_all"
							]
						}
					},
					"response": []
				},
				{
					"name": "Stages Delete",
					"request": {
						"auth": {
							"type": "bearer",
							"bearer": [
								{
									"key": "token",
									"value": "{{accessToken}}",
									"type": "string"
								}
							]
						},
						"method": "POST",
						"header": [],
						"body": {
							"mode": "raw",
							"raw": "{\r\n    \"device\": {{device}}\r\n}",
							"options": {
								"raw": {
									"language": "json"
								}
							}
						},
						"url": {
							"raw": "{{host_url}}/api/v1/stages/delete/43465129cfc71bf5fd97eacc805eb61a",
							"host": [
								"{{host_url}}"
							],
							"path": [
								"api",
								"v1",
								"stages",
								"delete",
								"43465129cfc71bf5fd97eacc805eb61a"
							]
						}
					},
					"response": []
				},
				{
					"name": "Stages Status Active",
					"request": {
						"auth": {
							"type": "bearer",
							"bearer": [
								{
									"key": "token",
									"value": "{{accessToken}}",
									"type": "string"
								}
							]
						},
						"method": "POST",
						"header": [],
						"body": {
							"mode": "raw",
							"raw": "{\r\n    \"device\": {{device}}\r\n}",
							"options": {
								"raw": {
									"language": "json"
								}
							}
						},
						"url": {
							"raw": "{{host_url}}/api/v1/stages/change_status/active/a1604899fd25228ac9249c25d60a7a22",
							"host": [
								"{{host_url}}"
							],
							"path": [
								"api",
								"v1",
								"stages",
								"change_status",
								"active",
								"a1604899fd25228ac9249c25d60a7a22"
							]
						}
					},
					"response": []
				},
				{
					"name": "Stages Status InActive",
					"request": {
						"auth": {
							"type": "bearer",
							"bearer": [
								{
									"key": "token",
									"value": "{{accessToken}}",
									"type": "string"
								}
							]
						},
						"method": "POST",
						"header": [],
						"body": {
							"mode": "raw",
							"raw": "{\r\n    \"device\": {{device}}\r\n}",
							"options": {
								"raw": {
									"language": "json"
								}
							}
						},
						"url": {
							"raw": "{{host_url}}/api/v1/stages/change_status/inactive/a1604899fd25228ac9249c25d60a7a22",
							"host": [
								"{{host_url}}"
							],
							"path": [
								"api",
								"v1",
								"stages",
								"change_status",
								"inactive",
								"a1604899fd25228ac9249c25d60a7a22"
							]
						}
					},
					"response": []
				},
				{
					"name": "Stages Get One PK",
					"request": {
						"auth": {
							"type": "bearer",
							"bearer": [
								{
									"key": "token",
									"value": "{{accessToken}}",
									"type": "string"
								}
							]
						},
						"method": "POST",
						"header": [],
						"body": {
							"mode": "raw",
							"raw": "{\r\n    \"device\": {{device}}\r\n}",
							"options": {
								"raw": {
									"language": "json"
								}
							}
						},
						"url": {
							"raw": "{{host_url}}/api/v1/stages/get_one_pk/1",
							"host": [
								"{{host_url}}"
							],
							"path": [
								"api",
								"v1",
								"stages",
								"get_one_pk",
								"1"
							]
						}
					},
					"response": []
				}
			]
		},
		{
			"name": "Plans",
			"item": [
				{
					"name": "+++Plans Save",
					"request": {
						"auth": {
							"type": "bearer",
							"bearer": [
								{
									"key": "token",
									"value": "{{accessToken}}",
									"type": "string"
								}
							]
						},
						"method": "POST",
						"header": [],
						"body": {
							"mode": "raw",
							"raw": "{\r\n    \"device\": {{device}},\r\n     \"saveData\": {\r\n        \"planName\": \"Eyad Hossary 8\",\r\n        \"idPatient\": 13,\r\n        \"idDoctor\": 85,\r\n        \"teath\": {\r\n            \"permanentTeeth\": {\r\n                \"upperRight\":[18,17,16,15,14,13,12,11],\r\n                \"upperLeft\":[21,22,23,24,25,26,27,28],\r\n                \"LowerRight\":[48,47,46,45,44,43,42,41],\r\n                \"LowerLeft\":[31,32,33,34,35,36,37,38]\r\n            },\r\n            \"DeciduousTeeth\": {\r\n                \"upperRight\":[18,17,16,15,14,13,12,11],\r\n                \"upperLeft\":[21,22,23,24,25,26,27,28],\r\n                \"LowerRight\":[48,47,46,45,44,43,42,41],\r\n                \"LowerLeft\":[31,32,33,34,35,36,37,38]\r\n            },\r\n            \"other\": {\r\n                \"upperRight\":[18,17,16,15,14,13,12,11],\r\n                \"upperLeft\":[21,22,23,24,25,26,27,28],\r\n                \"LowerRight\":[48,47,46,45,44,43,42,41],\r\n                \"LowerLeft\":[31,32,33,34,35,36,37,38]\r\n            }\r\n            },\r\n        \"planDiagnosies\": [],\r\n        \"planTreatments\": []\r\n    }\r\n}",
							"options": {
								"raw": {
									"language": "json"
								}
							}
						},
						"url": {
							"raw": "{{host_url}}/api/v1/plans/save/",
							"host": [
								"{{host_url}}"
							],
							"path": [
								"api",
								"v1",
								"plans",
								"save",
								""
							]
						}
					},
					"response": []
				},
				{
					"name": "+++Plans Save Update",
					"request": {
						"auth": {
							"type": "bearer",
							"bearer": [
								{
									"key": "token",
									"value": "{{accessToken}}",
									"type": "string"
								}
							]
						},
						"method": "POST",
						"header": [],
						"body": {
							"mode": "raw",
							"raw": "{\r\n    \"device\": {{device}},\r\n     \"saveData\": {\r\n        \"planName\": \"Eyad Hossary 9\",\r\n        \"teath\": {\r\n            \"permanentTeeth\": {\r\n                \"upperRight\":[18,17,16,15,14,13,12,11],\r\n                \"upperLeft\":[21,22,23,24,25,26,27,28],\r\n                \"LowerRight\":[48,47,46,45,44,43,42,41],\r\n                \"LowerLeft\":[31,32,33,34,35,36,37,38]\r\n            },\r\n            \"DeciduousTeeth\": {\r\n                \"upperRight\":[18,17,16,15,14,13,12,11],\r\n                \"upperLeft\":[21,22,23,24,25,26,27,28],\r\n                \"LowerRight\":[48,47,46,45,44,43,42,41],\r\n                \"LowerLeft\":[31,32,33,34,35,36,37,38]\r\n            },\r\n            \"other\": {\r\n                \"upperRight\":[18,17,16,15,14,13,12,11],\r\n                \"upperLeft\":[21,22,23,24,25,26,27,28],\r\n                \"LowerRight\":[48,47,46,45,44,43,42,41],\r\n                \"LowerLeft\":[31,32,33,34,35,36,37,38]\r\n            }\r\n            },\r\n        \"planDiagnosies\": [\r\n            {\"condition\": \"Caries\", \"type\": \"SURFACES\", \"label\":\"Buccal\", \"value\": 1, \"teeth\": [18,17,16], \"observations\": \"the label is under type\"},\r\n            {\"condition\": \"Root Canal Treatment\", \"type\": \"STATUS\", \"label\":\"Buccal, Distal, Lingual, Mesial, Occlusal\", \"value\": [2,7,8,9,16], \"teeth\": [18,17,16], \"observations\": \"the label is under type\"},\r\n            {\"condition\": \"TMJ & Muscles\", \"type\": \"\", \"label\":\"\", \"value\":[4,5,6], \"teeth\": [],\"observations\": \"this diagnosy is multiselect\"}\r\n        ],\r\n        \"planTreatments\": [\r\n            {\"treatment\": \"Root Canal Re-Treatment\", \"type\": \"CHANNELS\", \"label\":\"3 Canals\", \"value\": 1, \"teeth\": [18,17,16], \"price\":15000, \"date\":\"2022/10/02\", \"observations\": \"the label is under type, the idStage is important\", \"idStage\": 1},\r\n            {\"treatment\": \"Plastic Perio Surgery\", \"type\": \"\", \"label\":\"\", \"value\": 2, \"teeth\": [18,17,16], \"price\":15000, \"date\":\"2022/10/02\", \"observations\": \"this treatment do not have type and label, the idStage is important\", \"idStage\": 1},\r\n            {\"treatment\": \"Core Build Up\", \"type\": \"SURFACES\", \"label\":\"Buccal, Distal, Lingual, Mesial, Occlusal\", \"value\": [3,4,5,6,7], \"teeth\": [18,17,16], \"price\":15000, \"date\":\"2022/10/02\", \"observations\": \"this treatment have multi select, the idStage is important\", \"idStage\": 1}\r\n            ]\r\n    }\r\n}",
							"options": {
								"raw": {
									"language": "json"
								}
							}
						},
						"url": {
							"raw": "{{host_url}}/api/v1/plans/save/a0790112f917722741253e67c2c4202d",
							"host": [
								"{{host_url}}"
							],
							"path": [
								"api",
								"v1",
								"plans",
								"save",
								"a0790112f917722741253e67c2c4202d"
							]
						}
					},
					"response": []
				},
				{
					"name": "+++Plans Save Plan Diagnosy item",
					"request": {
						"auth": {
							"type": "bearer",
							"bearer": [
								{
									"key": "token",
									"value": "{{accessToken}}",
									"type": "string"
								}
							]
						},
						"method": "POST",
						"header": [],
						"body": {
							"mode": "raw",
							"raw": "{\r\n    \"device\": {{device}},\r\n     \"saveData\": {\r\n        \"planDiagnosies\": [\r\n            {\"condition\": \"Caries\", \"type\": \"SURFACES\", \"label\":\"Buccal\", \"value\": 1, \"teeth\": [18,17,16], \"observations\": \"this is add plan Diagnosies test 1\"}\r\n        ]\r\n    }\r\n}",
							"options": {
								"raw": {
									"language": "json"
								}
							}
						},
						"url": {
							"raw": "{{host_url}}/api/v1/plans/save/plan_diagnosies/32afbbdbfa7a762b251d28e4014ee0d2",
							"host": [
								"{{host_url}}"
							],
							"path": [
								"api",
								"v1",
								"plans",
								"save",
								"plan_diagnosies",
								"32afbbdbfa7a762b251d28e4014ee0d2"
							]
						}
					},
					"response": []
				},
				{
					"name": "+++Plans Save Plan tretmant item",
					"request": {
						"auth": {
							"type": "bearer",
							"bearer": [
								{
									"key": "token",
									"value": "{{accessToken}}",
									"type": "string"
								}
							]
						},
						"method": "POST",
						"header": [],
						"body": {
							"mode": "raw",
							"raw": "{\r\n    \"device\": {{device}},\r\n     \"saveData\": {\r\n        \"planTreatments\": [\r\n            {\"treatment\": \"Root Canal Re-Treatment\", \"type\": \"CHANNELS\", \"label\":\"3 Canals\", \"value\": 1, \"teeth\": [18,17,16], \"price\":15000, \"date\":\"2022/10/02\", \"observations\": \"this is add plan tretmant test\", \"idStage\": 1}\r\n        ]\r\n    }\r\n}",
							"options": {
								"raw": {
									"language": "json"
								}
							}
						},
						"url": {
							"raw": "{{host_url}}/api/v1/plans/save/plan_tretmants/32afbbdbfa7a762b251d28e4014ee0d2",
							"host": [
								"{{host_url}}"
							],
							"path": [
								"api",
								"v1",
								"plans",
								"save",
								"plan_tretmants",
								"32afbbdbfa7a762b251d28e4014ee0d2"
							]
						}
					},
					"response": []
				},
				{
					"name": "+++Plans Save Teeth",
					"request": {
						"auth": {
							"type": "bearer",
							"bearer": [
								{
									"key": "token",
									"value": "{{accessToken}}",
									"type": "string"
								}
							]
						},
						"method": "POST",
						"header": [],
						"body": {
							"mode": "raw",
							"raw": "{\r\n    \"device\": {{device}},\r\n     \"saveData\": {\r\n         \"teath\": {\r\n            \"permanentTeeth\": {\r\n                \"upperRight\":[18,17,16,15,14,13,12,11],\r\n                \"upperLeft\":[21,22,23,24,25,26,27,28],\r\n                \"LowerRight\":[48,47,46,45,44,43,42,41],\r\n                \"LowerLeft\":[31,32,33,34,35,36,37,38]\r\n            },\r\n            \"DeciduousTeeth\": {\r\n                \"upperRight\":[18,17,16,15,14,13,12,11],\r\n                \"upperLeft\":[21,22,23,24,25,26,27,28],\r\n                \"LowerRight\":[48,47,46,45,44,43,42,41],\r\n                \"LowerLeft\":[31,32,33,34,35,36,37,38]\r\n            },\r\n            \"other\": {\r\n                \"upperRight\":[18,17,16,15,14,13,12,11],\r\n                \"upperLeft\":[21,22,23,24,25,26,27,28],\r\n                \"LowerRight\":[48,47,46,45,44,43,42,41],\r\n                \"LowerLeft\":[31,32,33,34,35,36,37,38]\r\n            }\r\n         }\r\n     }\r\n}",
							"options": {
								"raw": {
									"language": "json"
								}
							}
						},
						"url": {
							"raw": "{{host_url}}/api/v1/plans/save/teeth/32afbbdbfa7a762b251d28e4014ee0d2",
							"host": [
								"{{host_url}}"
							],
							"path": [
								"api",
								"v1",
								"plans",
								"save",
								"teeth",
								"32afbbdbfa7a762b251d28e4014ee0d2"
							]
						}
					},
					"response": []
				},
				{
					"name": "Plans Get One",
					"request": {
						"auth": {
							"type": "bearer",
							"bearer": [
								{
									"key": "token",
									"value": "{{accessToken}}",
									"type": "string"
								}
							]
						},
						"method": "POST",
						"header": [],
						"body": {
							"mode": "raw",
							"raw": "{\r\n    \"device\": {{device}}\r\n}",
							"options": {
								"raw": {
									"language": "json"
								}
							}
						},
						"url": {
							"raw": "{{host_url}}/api/v1/plans/get_one/32afbbdbfa7a762b251d28e4014ee0d2",
							"host": [
								"{{host_url}}"
							],
							"path": [
								"api",
								"v1",
								"plans",
								"get_one",
								"32afbbdbfa7a762b251d28e4014ee0d2"
							]
						}
					},
					"response": []
				},
				{
					"name": "Plans Get Plan Diagnosies",
					"request": {
						"auth": {
							"type": "bearer",
							"bearer": [
								{
									"key": "token",
									"value": "{{accessToken}}",
									"type": "string"
								}
							]
						},
						"method": "POST",
						"header": [],
						"body": {
							"mode": "raw",
							"raw": "{\r\n    \"device\": {{device}}\r\n}",
							"options": {
								"raw": {
									"language": "json"
								}
							}
						},
						"url": {
							"raw": "{{host_url}}/api/v1/plans/get_plan_diagnosies/32afbbdbfa7a762b251d28e4014ee0d2",
							"host": [
								"{{host_url}}"
							],
							"path": [
								"api",
								"v1",
								"plans",
								"get_plan_diagnosies",
								"32afbbdbfa7a762b251d28e4014ee0d2"
							]
						}
					},
					"response": []
				},
				{
					"name": "Plans Get Plan Treatments",
					"request": {
						"auth": {
							"type": "bearer",
							"bearer": [
								{
									"key": "token",
									"value": "{{accessToken}}",
									"type": "string"
								}
							]
						},
						"method": "POST",
						"header": [],
						"body": {
							"mode": "raw",
							"raw": "{\r\n    \"device\": {{device}}\r\n}",
							"options": {
								"raw": {
									"language": "json"
								}
							}
						},
						"url": {
							"raw": "{{host_url}}/api/v1/plans/get_plan_treatments/32afbbdbfa7a762b251d28e4014ee0d2",
							"host": [
								"{{host_url}}"
							],
							"path": [
								"api",
								"v1",
								"plans",
								"get_plan_treatments",
								"32afbbdbfa7a762b251d28e4014ee0d2"
							]
						}
					},
					"response": []
				},
				{
					"name": "Plans List",
					"request": {
						"auth": {
							"type": "bearer",
							"bearer": [
								{
									"key": "token",
									"value": "{{accessToken}}",
									"type": "string"
								}
							]
						},
						"method": "POST",
						"header": [],
						"body": {
							"mode": "raw",
							"raw": "{\r\n    \"device\": {{device}},\r\n     \"paginationData\": {\r\n        \"page\" : 0,\r\n        \"perPage\" : 10,\r\n        \"q\": \"\",\r\n        \"filter\": {\r\n            \"idPatient\":1\r\n        },\r\n        \"sort\":{ \r\n            \"stageName\":\"ASC\",\r\n            \"fromDate\":\"\",\r\n            \"toDate\":\"\"\r\n        }\r\n    }\r\n}",
							"options": {
								"raw": {
									"language": "json"
								}
							}
						},
						"url": {
							"raw": "{{host_url}}/api/v1/plans/list",
							"host": [
								"{{host_url}}"
							],
							"path": [
								"api",
								"v1",
								"plans",
								"list"
							]
						}
					},
					"response": []
				},
				{
					"name": "Plans List With Patient",
					"request": {
						"auth": {
							"type": "bearer",
							"bearer": [
								{
									"key": "token",
									"value": "{{accessToken}}",
									"type": "string"
								}
							]
						},
						"method": "POST",
						"header": [],
						"body": {
							"mode": "raw",
							"raw": "{\r\n    \"device\": {{device}},\r\n     \"paginationData\": {\r\n        \"page\" : 0,\r\n        \"perPage\" : 10,\r\n        \"q\": \"\",\r\n        \"filter\": {\r\n        },\r\n        \"sort\":{ \r\n            \"stageName\":\"ASC\",\r\n            \"fromDate\":\"\",\r\n            \"toDate\":\"\"\r\n        }\r\n    }\r\n}",
							"options": {
								"raw": {
									"language": "json"
								}
							}
						},
						"url": {
							"raw": "{{host_url}}/api/v1/plans/list/1",
							"host": [
								"{{host_url}}"
							],
							"path": [
								"api",
								"v1",
								"plans",
								"list",
								"1"
							]
						}
					},
					"response": []
				},
				{
					"name": "Plans Fill All",
					"request": {
						"auth": {
							"type": "bearer",
							"bearer": [
								{
									"key": "token",
									"value": "{{accessToken}}",
									"type": "string"
								}
							]
						},
						"method": "POST",
						"header": [],
						"body": {
							"mode": "raw",
							"raw": "{\r\n        \"device\": {{device}}\r\n}",
							"options": {
								"raw": {
									"language": "json"
								}
							}
						},
						"url": {
							"raw": "{{host_url}}/api/v1/plans/list_all",
							"host": [
								"{{host_url}}"
							],
							"path": [
								"api",
								"v1",
								"plans",
								"list_all"
							]
						}
					},
					"response": []
				},
				{
					"name": "Plans Delete",
					"request": {
						"auth": {
							"type": "bearer",
							"bearer": [
								{
									"key": "token",
									"value": "{{accessToken}}",
									"type": "string"
								}
							]
						},
						"method": "POST",
						"header": [],
						"body": {
							"mode": "raw",
							"raw": "{\r\n    \"device\": {{device}}\r\n}",
							"options": {
								"raw": {
									"language": "json"
								}
							}
						},
						"url": {
							"raw": "{{host_url}}/api/v1/plans/delete/b2b4608bba9078e498e98225fbf70869",
							"host": [
								"{{host_url}}"
							],
							"path": [
								"api",
								"v1",
								"plans",
								"delete",
								"b2b4608bba9078e498e98225fbf70869"
							]
						}
					},
					"response": []
				},
				{
					"name": "Plans Status Active",
					"request": {
						"auth": {
							"type": "bearer",
							"bearer": [
								{
									"key": "token",
									"value": "{{accessToken}}",
									"type": "string"
								}
							]
						},
						"method": "POST",
						"header": [],
						"body": {
							"mode": "raw",
							"raw": "{\r\n    \"device\": {{device}}\r\n}",
							"options": {
								"raw": {
									"language": "json"
								}
							}
						},
						"url": {
							"raw": "{{host_url}}/api/v1/plans/change_status/active/15a25562f53edb52132c154c893f3753",
							"host": [
								"{{host_url}}"
							],
							"path": [
								"api",
								"v1",
								"plans",
								"change_status",
								"active",
								"15a25562f53edb52132c154c893f3753"
							]
						}
					},
					"response": []
				},
				{
					"name": "Plans Status InActive",
					"request": {
						"auth": {
							"type": "bearer",
							"bearer": [
								{
									"key": "token",
									"value": "{{accessToken}}",
									"type": "string"
								}
							]
						},
						"method": "POST",
						"header": [],
						"body": {
							"mode": "raw",
							"raw": "{\r\n    \"device\": {{device}}\r\n}",
							"options": {
								"raw": {
									"language": "json"
								}
							}
						},
						"url": {
							"raw": "{{host_url}}/api/v1/plans/change_status/inactive/15a25562f53edb52132c154c893f3753",
							"host": [
								"{{host_url}}"
							],
							"path": [
								"api",
								"v1",
								"plans",
								"change_status",
								"inactive",
								"15a25562f53edb52132c154c893f3753"
							]
						}
					},
					"response": []
				},
				{
					"name": "Plans Get One PK",
					"request": {
						"auth": {
							"type": "bearer",
							"bearer": [
								{
									"key": "token",
									"value": "{{accessToken}}",
									"type": "string"
								}
							]
						},
						"method": "POST",
						"header": [],
						"body": {
							"mode": "raw",
							"raw": "{\r\n    \"device\": {{device}}\r\n}",
							"options": {
								"raw": {
									"language": "json"
								}
							}
						},
						"url": {
							"raw": "{{host_url}}/api/v1/plans/get_one_pk/1",
							"host": [
								"{{host_url}}"
							],
							"path": [
								"api",
								"v1",
								"plans",
								"get_one_pk",
								"1"
							]
						}
					},
					"response": []
				}
			]
		}
	]
}